

  ___   _   _  __     __  _____   _   _   _____    ___    ____   __   __    ____    _____   ____   __     __  ___    ____   _____
 |_ _| | \ | | \ \   / / | ____| | \ | | |_   _|  / _ \  |  _ \  \ \ / /   / ___|  | ____| |  _ \  \ \   / / |_ _|  / ___| | ____|
  | |  |  \| |  \ \ / /  |  _|   |  \| |   | |   | | | | | |_) |  \ V /    \___ \  |  _|   | |_) |  \ \ / /   | |  | |     |  _|
  | |  | |\  |   \ V /   | |___  | |\  |   | |   | |_| | |  _ <    | |      ___) | | |___  |  _ <    \ V /    | |  | |___  | |___
 |___| |_| \_|    \_/    |_____| |_| \_|   |_|    \___/  |_| \_\   |_|     |____/  |_____| |_| \_\    \_/    |___|  \____| |_____|



